Pivot Tables
…
group_by multiple variables

And summarize by multiple variables

We used mean() to calculate the mean size of lobsters by each site and year, and used na.rm = TRUE to calculate mean despite having missing values in our raw data.

siteYearSummary <- lobsters %>% 
  group_by(site, year) %>% 
  summarize(countBySiteYear = n(),
            meanSizeMm = mean(size_mm, na.rm = TRUE),
            sdSizeMm = sd(size_mm, na.rm = TRUE))

siteYearSummary

## # A tibble: 35 x 5
## # Groups:   site [5]
##    site   year countBySiteYear meanSizeMm sdSizeMm
##    <chr> <dbl>           <int>      <dbl>    <dbl>
##  1 aque   2012              38       71      10.2 
##  2 aque   2013              32       72.1    12.3 
##  3 aque   2014             100       76.9     9.32
##  4 aque   2015              83       68.5    12.6 
##  5 aque   2016              48       68.7    12.5 
##  6 aque   2017              67       73.9    11.9 
##  7 aque   2018              54       71.7     8.14
##  8 carp   2012              78       74.4    14.6 
##  9 carp   2013              93       76.6     8.71
## 10 carp   2014              79       79.1     8.57
## #  with 25 more rows
…
Calculate the median size_mm (?median)

Create and ggsave() a plot

siteYearSummary <- lobsters %>% 
  group_by(site, year) %>% 
  summarize(countBySiteYear = n(),
            meanSizeMm = mean(size_mm, na.rm = TRUE),
            sdSizeMm = sd(size_mm, na.rm = TRUE),
            medianSizeMm = median(size_mm, na.rm = TRUE))

siteYearSummary

## # A tibble: 35 x 6
## # Groups:   site [5]
##    site   year countBySiteYear meanSizeMm sdSizeMm medianSizeMm
##    <chr> <dbl>           <int>      <dbl>    <dbl>        <dbl>
##  1 aque   2012              38       71      10.2          70  
##  2 aque   2013              32       72.1    12.3          75  
##  3 aque   2014             100       76.9     9.32         75.5
##  4 aque   2015              83       68.5    12.6          70  
##  5 aque   2016              48       68.7    12.5          71  
##  6 aque   2017              67       73.9    11.9          75  
##  7 aque   2018              54       71.7     8.14         72  
##  8 carp   2012              78       74.4    14.6          74.5
##  9 carp   2013              93       76.6     8.71         76  
## 10 carp   2014              79       79.1     8.57         79  
## #  with 25 more rows
…
